{
    "key": "group_637bb1a81ea1e",
    "title": "Product Video",
    "fields": [
        {
            "key": "field_63bffb6ad22fb",
            "label": "Video Source",
            "name": "product_video_source",
            "type": "select",
            "instructions": "",
            "required": 0,
            "conditional_logic": 0,
            "wrapper": {
                "width": "",
                "class": "",
                "id": ""
            },
            "choices": {
                "youtube": "Youtube",
                "vimeo": "Vimeo"
            },
            "default_value": false,
            "allow_null": 1,
            "multiple": 0,
            "ui": 0,
            "return_format": "value",
            "ajax": 0,
            "placeholder": ""
        },
        {
            "key": "field_637bb1f3812b1",
            "label": "Video ID",
            "name": "product_youtube_id",
            "type": "text",
            "instructions": "Enter the ID of the Youtube\/Vimeo video you wish to display, NOT the entire url. So if for example you wish to display the video at the url https:\/\/www.youtube.com\/watch?v=<strong>IfoNaROyQJk<\/strong> you would copy the text shown after the ?v=, in this case <strong>IfoNaROyQJk<\/strong>",
            "required": 0,
            "conditional_logic": 0,
            "wrapper": {
                "width": "",
                "class": "",
                "id": ""
            },
            "default_value": "",
            "placeholder": "",
            "prepend": "",
            "append": "",
            "maxlength": ""
        },
        {
            "key": "field_637bb23a812b3",
            "label": "Video Position",
            "name": "product_video_position",
            "type": "number",
            "instructions": "",
            "required": 0,
            "conditional_logic": 0,
            "wrapper": {
                "width": "",
                "class": "",
                "id": ""
            },
            "default_value": "",
            "placeholder": "",
            "prepend": "",
            "append": "",
            "min": "",
            "max": "",
            "step": ""
        },
        {
            "key": "field_637bb21c812b2",
            "label": "Video Thumbnail",
            "name": "product_youtube_thumbnail",
            "type": "image",
            "instructions": "Add a custom thumbnail for this video. If this is left blank a default thumbnail will be displayed",
            "required": 0,
            "conditional_logic": 0,
            "wrapper": {
                "width": "",
                "class": "",
                "id": ""
            },
            "return_format": "array",
            "preview_size": "thumbnail",
            "library": "all",
            "min_width": "",
            "min_height": "",
            "min_size": "",
            "max_width": "",
            "max_height": "",
            "max_size": "",
            "mime_types": ""
        }
    ],
    "location": [
        [
            {
                "param": "post_type",
                "operator": "==",
                "value": "product"
            }
        ]
    ],
    "menu_order": 0,
    "position": "normal",
    "style": "default",
    "label_placement": "top",
    "instruction_placement": "label",
    "hide_on_screen": "",
    "active": true,
    "description": "",
    "modified": 1673526202
}